{
  "Início": {
    "url": "",
    "pasta-minisite": "mini-site",
    "minisite": "Ecoplast"
  },
  "Sobre Nós": {
    "url": "sobre-nos"
  },
  "Contato": {
    "url": "contato"
  },
  "Catálogo": {
    "url": "catalogo",
    "icon": "fa-solid fa-chevron-down",
    "classe": "nome-da-classe",
    "submenu": {
      "Barra Dissipadora de Calor Alumínio": {
        "url": "barra-dissipadora-de-calor-aluminio",
        "metadescription": "Barra Dissipadora de Calor Alumínio ideal para dissipação eficiente de calor em sistemas eletrônicos e industriais. Solicite sua cotação agora mesmo.",
        "conteudo": "<p>A Barra Dissipadora de Calor Alumínio é essencial para dissipar o calor em sistemas eletrônicos, garantindo eficiência térmica e maior durabilidade. Utilizada em equipamentos industriais, possui alta condutividade térmica e resistência.</p><h2>O que é Barra Dissipadora de Calor Alumínio?</h2><p>A Barra Dissipadora de Calor Alumínio é um componente amplamente utilizado em sistemas que necessitam de controle térmico. Fabricada em alumínio, oferece alta condutividade térmica, garantindo eficiência no resfriamento de dispositivos eletrônicos e industriais. Sua função principal é dissipar o calor gerado durante o funcionamento de equipamentos, prevenindo superaquecimentos e danos ao sistema. É essencial em segmentos como eletrônica, automação e refrigeração.</p><p>Esse tipo de barra é produzido com especificações precisas, atendendo a requisitos de desempenho e resistência. O alumínio é escolhido por ser leve, resistente à corrosão e ter excelente capacidade de condução de calor. Além disso, sua estrutura facilita a instalação em diversos equipamentos, tornando-o versátil e prático. O uso dessa barra contribui para maior eficiência dos sistemas e prolonga a vida útil dos componentes eletrônicos.</p><p>A importância da Barra Dissipadora de Calor Alumínio está em sua capacidade de lidar com desafios térmicos complexos. Ela garante que os sistemas operem em temperaturas adequadas, reduzindo riscos de falhas e melhorando a segurança operacional. Por essas razões, é considerada indispensável em projetos de alta performance.</p><h2>Como Barra Dissipadora de Calor Alumínio funciona?</h2><p>O funcionamento da Barra Dissipadora de Calor Alumínio baseia-se na transferência térmica. Quando os componentes eletrônicos produzem calor, a barra absorve essa energia e a distribui, reduzindo a temperatura geral. O alumínio facilita essa transferência devido à sua condutividade térmica elevada.</p><p>Além disso, a barra é projetada com superfícies que aumentam sua área de contato com o ar, promovendo a dissipação mais rápida. Em sistemas que utilizam ventilação forçada, a eficiência da dissipação de calor é ainda maior, mantendo o sistema em temperaturas seguras. Isso minimiza falhas e aumenta a confiabilidade dos equipamentos.</p><p>Outro ponto relevante é que a Barra Dissipadora de Calor Alumínio funciona de maneira contínua e silenciosa, adaptando-se a diferentes demandas térmicas. Por isso, é uma solução confiável para indústrias e setores diversos.</p><h2>Quais os principais tipos de Barra Dissipadora de Calor Alumínio?</h2><p>Existem diferentes tipos de Barra Dissipadora de Calor Alumínio, cada uma projetada para aplicações específicas. Os modelos variam em tamanho, design e capacidade de dissipação térmica. Um dos modelos mais comuns é a barra com aletas, ideal para aplicações que demandam maior eficiência de resfriamento.</p><p>Outro tipo inclui barras maciças, geralmente utilizadas em sistemas que necessitam de alta resistência mecânica. Há ainda as barras anodizadas, que possuem uma camada protetora contra corrosão, tornando-as indicadas para ambientes agressivos. Essas variações garantem que as barras atendam a diferentes necessidades, oferecendo flexibilidade de uso.</p><p>A escolha do tipo certo de Barra Dissipadora de Calor Alumínio depende do projeto e das especificações técnicas de cada sistema. Consultar especialistas e fornecedores confiáveis é essencial para garantir o melhor desempenho.</p><h2>Quais as aplicações do Barra Dissipadora de Calor Alumínio?</h2><p>A Barra Dissipadora de Calor Alumínio possui aplicações variadas, sendo amplamente utilizada em sistemas eletrônicos, como computadores, servidores e equipamentos de comunicação. Em automação industrial, é empregada para manter a estabilidade térmica de motores e dispositivos sensíveis.</p><p>Também é comum sua aplicação em sistemas de iluminação, como luminárias LED, onde o controle térmico é fundamental para aumentar a durabilidade dos componentes. Na indústria automotiva, essas barras são utilizadas para dissipar calor em motores e sistemas de transmissão, garantindo desempenho otimizado.</p><p>Outros setores que utilizam a Barra Dissipadora de Calor Alumínio incluem energia renovável, refrigeração e telecomunicações. Sua versatilidade e eficiência a tornam indispensável em qualquer aplicação que exija controle térmico confiável e duradouro.</p><p>A Barra Dissipadora de Calor Alumínio é indispensável para a eficiência térmica de sistemas eletrônicos e industriais. Seu uso proporciona maior segurança e durabilidade aos equipamentos, além de reduzir riscos operacionais.</p><p>Solicite agora mesmo uma cotação no Soluções Industriais e descubra como esse componente pode otimizar seus projetos. Garanta eficiência e qualidade com soluções de alto desempenho!</p>"
      },
      "Dissipador Calor Alumínio": {
        "url": "dissipador-calor-aluminio",
        "metadescription": "Dissipador Calor Alumínio é ideal para controlar a temperatura de sistemas eletrônicos e industriais com eficiência. Solicite uma cotação agora mesmo.",
        "conteudo": "<p>O Dissipador Calor Alumínio é utilizado para controlar a temperatura em sistemas eletrônicos e industriais. Oferece alta eficiência térmica, resistência e durabilidade, sendo indispensável em diversos setores.</p><h2>O que é Dissipador Calor Alumínio?</h2><p>O Dissipador Calor Alumínio é um componente utilizado para reduzir a temperatura em sistemas que geram calor excessivo. É fabricado em alumínio devido à sua alta condutividade térmica, leveza e resistência à corrosão. Esse material permite uma rápida dissipação do calor, garantindo que equipamentos eletrônicos, industriais e automotivos operem dentro de temperaturas seguras.</p><p>Esses dissipadores são projetados com superfícies otimizadas, como aletas ou formatos específicos, para aumentar a área de contato com o ar e melhorar o resfriamento. O uso do Dissipador Calor Alumínio é essencial em aplicações que requerem eficiência térmica, prolongando a vida útil dos equipamentos e prevenindo falhas operacionais causadas pelo superaquecimento.</p><p>Além disso, esse tipo de dissipador é amplamente utilizado em setores que demandam confiabilidade e precisão, como informática, telecomunicações, automação industrial e iluminação LED. Sua versatilidade o torna indispensável em diversas indústrias.</p><h2>Como Dissipador Calor Alumínio funciona?</h2><p>O funcionamento do Dissipador Calor Alumínio baseia-se no princípio da transferência térmica. Quando um equipamento gera calor durante sua operação, o dissipador absorve essa energia e a dispersa para o ambiente. A estrutura de alumínio, com alta condutividade térmica, facilita esse processo.</p><p>O design do dissipador, com superfícies aumentadas, como aletas, permite que o calor seja dissipado mais rapidamente para o ar. Em sistemas que utilizam ventilação forçada, como ventiladores, o desempenho é ainda mais eficiente. Isso garante temperaturas estáveis, evitando danos ao equipamento.</p><p>Esse funcionamento contínuo e silencioso é ideal para sistemas que precisam operar por longos períodos, tornando o Dissipador Calor Alumínio uma escolha confiável para diversas aplicações industriais e tecnológicas.</p><h2>Quais os principais tipos de Dissipador Calor Alumínio?</h2><p>Existem diferentes tipos de Dissipador Calor Alumínio, projetados para atender necessidades específicas. Os mais comuns incluem dissipadores com aletas, que são ideais para maximizar a eficiência de dissipação em sistemas compactos, e dissipadores maciços, utilizados em aplicações que demandam alta resistência mecânica e térmica.</p><p>Outros modelos incluem dissipadores anodizados, que possuem revestimento protetor contra corrosão, sendo indicados para ambientes agressivos. Há também dissipadores personalizados, desenvolvidos para atender projetos específicos, garantindo alta eficiência em aplicações customizadas.</p><p>A escolha do tipo adequado de Dissipador Calor Alumínio depende das especificações técnicas do sistema e das condições de operação. Consultar especialistas é fundamental para garantir a melhor solução para cada aplicação.</p><h2>Quais as aplicações do Dissipador Calor Alumínio?</h2><p>O Dissipador Calor Alumínio é amplamente utilizado em diversas aplicações. Na área de eletrônica, é essencial para controlar a temperatura de componentes como processadores, placas de vídeo e fontes de alimentação. Em telecomunicações, garante o funcionamento estável de equipamentos como antenas e roteadores.</p><p>Na automação industrial, o dissipador é utilizado em motores e inversores de frequência, evitando o superaquecimento durante operações intensas. Sistemas de iluminação LED também se beneficiam do Dissipador Calor Alumínio, aumentando a durabilidade e eficiência luminosa.</p><p>Além disso, esse componente é empregado em setores como refrigeração, energia renovável e automotivo, contribuindo para a eficiência térmica de painéis solares, sistemas de transmissão e motores elétricos. Sua versatilidade o torna indispensável em projetos que exigem alta performance térmica.</p><p>O Dissipador Calor Alumínio é a solução ideal para controle térmico em sistemas eletrônicos, industriais e automotivos. Sua eficiência e resistência garantem maior durabilidade e segurança aos equipamentos.</p><p>Solicite agora mesmo uma cotação no Soluções Industriais e descubra como esse componente pode melhorar a performance dos seus projetos. Invista em qualidade e tecnologia!</p>"
      },
      "Dissipador Cobre": {
        "url": "dissipador-cobre",
        "metadescription": "Dissipador Cobre garante alta eficiência térmica em sistemas eletrônicos e industriais, oferecendo durabilidade e resistência. Solicite uma cotação agora mesmo!",
        "conteudo": "<p>O Dissipador Cobre é amplamente utilizado para dissipar calor em sistemas eletrônicos e industriais. Sua alta condutividade térmica garante eficiência, durabilidade e desempenho superior em diversas aplicações.</p><h2>O que é Dissipador Cobre?</h2><p>O Dissipador Cobre é um componente essencial em sistemas que demandam controle térmico de alta eficiência. Fabricado com cobre puro ou em ligas especiais, este dissipador oferece uma das melhores condutividades térmicas disponíveis no mercado. Essa característica o torna indispensável para equipamentos que geram calor excessivo, como componentes eletrônicos, motores industriais e sistemas de refrigeração.</p><p>A alta densidade e condutividade térmica do cobre permitem que o dissipador absorva e distribua o calor rapidamente, evitando superaquecimentos e mantendo o sistema em operação segura. Além disso, o cobre é resistente e durável, suportando condições extremas e garantindo uma longa vida útil.</p><p>Utilizado em diversos setores, como eletrônica, automação, telecomunicações e até na indústria automotiva, o Dissipador Cobre é uma solução confiável para melhorar a eficiência térmica e prolongar a vida útil dos equipamentos.</p><h2>Como Dissipador Cobre funciona?</h2><p>O funcionamento do Dissipador Cobre é baseado na alta capacidade do cobre de transferir calor. Quando um sistema eletrônico ou industrial emite calor, o dissipador absorve essa energia térmica e a distribui uniformemente pela sua superfície. O calor é então transferido para o ambiente, mantendo a temperatura dos componentes em níveis seguros.</p><p>O design do dissipador inclui superfícies ampliadas, como aletas, para aumentar a eficiência da troca térmica. Em sistemas que utilizam ventiladores ou refrigeração líquida, o desempenho do Dissipador Cobre é ainda mais otimizado. Essa eficiência garante maior estabilidade operacional e reduz os riscos de falhas.</p><p>Por sua composição e projeto, o Dissipador Cobre é capaz de operar de maneira contínua, suportando altos níveis de calor por longos períodos, o que o torna indispensável em aplicações críticas.</p><h2>Quais os principais tipos de Dissipador Cobre?</h2><p>O Dissipador Cobre está disponível em diferentes tipos, desenvolvidos para atender diversas aplicações. Entre os mais comuns estão os dissipadores com aletas, que maximizam a área de dissipação de calor. Este modelo é ideal para sistemas compactos que exigem alta eficiência.</p><p>Outra variação é o dissipador maciço, que possui maior resistência térmica e mecânica, sendo indicado para equipamentos industriais de grande porte. Há também os modelos híbridos, que combinam cobre e outros materiais, como alumínio, para oferecer uma solução balanceada entre custo e desempenho.</p><p>A escolha do tipo certo de Dissipador Cobre depende das especificações do projeto e das condições operacionais. Consultar um fornecedor especializado é essencial para selecionar o modelo mais adequado.</p><h2>Quais as aplicações do Dissipador Cobre?</h2><p>O Dissipador Cobre é amplamente utilizado em diversas aplicações industriais e tecnológicas. Na eletrônica, é essencial para resfriar processadores, placas de vídeo e módulos de energia, garantindo estabilidade e desempenho em equipamentos de alta performance.</p><p>No setor automotivo, o dissipador é empregado em motores e sistemas de transmissão, reduzindo o calor gerado durante a operação. Em telecomunicações, ele auxilia no resfriamento de antenas e servidores, aumentando a eficiência e a durabilidade dos sistemas.</p><p>Outras aplicações incluem iluminação LED, onde o controle térmico é fundamental para prolongar a vida útil das lâmpadas, e sistemas de refrigeração, como câmaras frigoríficas e chillers industriais. A versatilidade do Dissipador Cobre o torna indispensável em qualquer aplicação que exija controle térmico confiável e eficiente.</p><p>O Dissipador Cobre é uma solução de alta performance para controle térmico, garantindo eficiência e confiabilidade em sistemas eletrônicos e industriais. Sua durabilidade e excelente condutividade térmica o tornam uma escolha ideal.</p><p>Solicite agora mesmo uma cotação no Soluções Industriais e aproveite todos os benefícios desse componente essencial para seus projetos. Invista em eficiência e qualidade!</p>"
      },
      "Dissipador de Calor Alumínio Anodizado": {
        "url": "dissipador-de-calor-aluminio-anodizado",
        "metadescription": "Dissipador de Calor Alumínio Anodizado oferece alta eficiência térmica e proteção contra corrosão, ideal para sistemas eletrônicos e industriais.",
        "conteudo": "<p>O Dissipador de Calor Alumínio Anodizado é essencial para dissipar calor em sistemas eletrônicos e industriais. Oferece eficiência térmica, proteção contra corrosão e alta durabilidade em diversas aplicações.</p><h2>O que é Dissipador de Calor Alumínio Anodizado?</h2><p>O Dissipador de Calor Alumínio Anodizado é um componente projetado para gerenciar o calor em sistemas que produzem altas temperaturas. É fabricado em alumínio anodizado, um material que além de possuir alta condutividade térmica, é tratado para resistir à corrosão, tornando-se ideal para ambientes agressivos.</p><p>O processo de anodização cria uma camada protetora no alumínio, melhorando sua durabilidade e proporcionando maior eficiência em aplicações de longo prazo. Essa característica torna o Dissipador de Calor Alumínio Anodizado indispensável em setores como eletrônica, automação industrial, telecomunicações e iluminação LED.</p><p>Além disso, a leveza do alumínio facilita sua instalação e integração em projetos variados. Sua alta capacidade de dissipação de calor garante o funcionamento seguro e eficiente de sistemas, prolongando a vida útil dos equipamentos e prevenindo falhas causadas por superaquecimento.</p><h2>Como Dissipador de Calor Alumínio Anodizado funciona?</h2><p>O Dissipador de Calor Alumínio Anodizado funciona transferindo o calor gerado por componentes eletrônicos ou industriais para o ambiente, evitando o superaquecimento. O alumínio, com sua alta condutividade térmica, absorve o calor rapidamente e o distribui pela superfície do dissipador.</p><p>O processo de anodização melhora a eficiência do dissipador ao criar uma superfície mais resistente e estável, reduzindo a possibilidade de danos causados por fatores externos, como umidade ou produtos químicos. O design com aletas aumenta a área de contato com o ar, otimizando a troca térmica.</p><p>Em aplicações que utilizam ventilação forçada ou refrigeração líquida, o desempenho do Dissipador de Calor Alumínio Anodizado é ainda mais eficiente, garantindo temperaturas controladas e segurança operacional.</p><h2>Quais os principais tipos de Dissipador de Calor Alumínio Anodizado?</h2><p>Existem diversos tipos de Dissipador de Calor Alumínio Anodizado, desenvolvidos para atender necessidades específicas. Os modelos mais comuns incluem dissipadores com aletas, que maximizam a dissipação térmica em espaços compactos, sendo ideais para sistemas eletrônicos.</p><p>Outros modelos incluem dissipadores maciços, que oferecem maior resistência mecânica e térmica, sendo indicados para aplicações industriais de grande porte. Há também dissipadores personalizados, projetados para atender requisitos técnicos específicos, garantindo o melhor desempenho para cada projeto.</p><p>A anodização está disponível em diferentes cores e espessuras, permitindo não apenas melhorar a funcionalidade, mas também agregar valor estético aos equipamentos. Essa variedade oferece soluções para diversas aplicações, desde projetos padrão até demandas personalizadas.</p><h2>Quais as aplicações do Dissipador de Calor Alumínio Anodizado?</h2><p>O Dissipador de Calor Alumínio Anodizado é amplamente utilizado em aplicações que exigem controle térmico confiável e resistência a condições adversas. Na eletrônica, é essencial para resfriar componentes como processadores, placas de circuito e fontes de alimentação.</p><p>No setor de iluminação, é utilizado em luminárias LED, aumentando a eficiência luminosa e prolongando a vida útil do sistema. Na indústria automotiva, o dissipador é aplicado em motores e sistemas de transmissão, garantindo estabilidade térmica durante o funcionamento.</p><p>Além disso, o Dissipador de Calor Alumínio Anodizado é empregado em telecomunicações, refrigeração e sistemas de energia renovável, como painéis solares e inversores. Sua versatilidade e durabilidade tornam esse componente indispensável para qualquer aplicação que necessite de eficiência térmica e proteção contra corrosão.</p><p>O Dissipador de Calor Alumínio Anodizado é a solução perfeita para controle térmico eficiente e proteção contra corrosão em sistemas eletrônicos e industriais. Sua durabilidade e versatilidade garantem resultados superiores.</p><p>Solicite agora uma cotação no Soluções Industriais e aproveite todos os benefícios desse componente indispensável para melhorar o desempenho dos seus projetos. Invista em tecnologia e qualidade!</p>"
      },
      "Dissipador de Calor Computador": {
        "url": "dissipador-de-calor-computador",
        "metadescription": "Dissipador de Calor Computador é essencial para resfriar processadores e garantir alto desempenho e segurança térmica. Solicite uma cotaçã agora mesmo.",
        "conteudo": "<p>O Dissipador de Calor Computador é fundamental para resfriar processadores e outros componentes. Ele assegura alta performance, evita superaquecimentos e prolonga a vida útil dos sistemas.</p><h2>O que é Dissipador de Calor Computador?</h2><p>O Dissipador de Calor Computador é um componente indispensável para manter a temperatura ideal de dispositivos internos, como processadores, chipsets e placas gráficas. Ele é projetado para dissipar o calor gerado durante o funcionamento desses componentes, evitando superaquecimentos que podem comprometer o desempenho e causar danos permanentes ao hardware.</p><p>Fabricado com materiais de alta condutividade térmica, como alumínio ou cobre, o dissipador utiliza seu design otimizado para aumentar a área de contato com o ar, promovendo uma troca térmica eficiente. Em sistemas modernos, é frequentemente combinado com ventiladores ou soluções de resfriamento líquido para maximizar a eficiência do resfriamento.</p><p>Além de melhorar a estabilidade operacional, o Dissipador de Calor Computador contribui para o prolongamento da vida útil dos componentes, sendo uma peça essencial para desktops, notebooks, servidores e outros dispositivos eletrônicos avançados.</p><h2>Como Dissipador de Calor Computador funciona?</h2><p>O Dissipador de Calor Computador funciona absorvendo o calor gerado pelos componentes eletrônicos e dispersando-o para o ambiente. Isso ocorre graças à alta condutividade térmica do material do dissipador, geralmente alumínio ou cobre, que rapidamente transfere o calor da superfície do componente para suas aletas ou superfícies de dissipação.</p><p>O design do dissipador, frequentemente equipado com aletas finas e espaçadas, aumenta a área de contato com o ar, acelerando a troca térmica. Quando combinado com um ventilador, o fluxo de ar força a remoção do calor de maneira mais eficiente, mantendo a temperatura do sistema estável.</p><p>Em sistemas de alta performance, como computadores para jogos ou edição de vídeo, soluções mais avançadas, como dissipadores com refrigeração líquida, são usadas para lidar com o calor gerado pelos processadores de última geração.</p><h2>Quais os principais tipos de Dissipador de Calor Computador?</h2><p>Os principais tipos de Dissipador de Calor Computador incluem dissipadores passivos, ativos e híbridos. O dissipador passivo utiliza apenas suas aletas para dispersar o calor, sendo silencioso, mas limitado em capacidade térmica. É ideal para sistemas de baixo consumo energético.</p><p>Já o dissipador ativo combina aletas com um ventilador para aumentar a eficiência da dissipação de calor. Esse tipo é amplamente utilizado em computadores convencionais e sistemas de alta performance. Os dissipadores híbridos, por sua vez, integram resfriamento líquido com dissipadores tradicionais, sendo a solução mais eficiente para aplicações intensivas.</p><p>Outro diferencial é o material: dissipadores de cobre oferecem melhor desempenho térmico, enquanto os de alumínio são mais leves e econômicos. A escolha depende das especificações e necessidades do sistema.</p><h2>Quais as aplicações do Dissipador de Calor Computador?</h2><p>O Dissipador de Calor Computador é essencial em diversas aplicações, sendo amplamente utilizado em desktops, notebooks e servidores. Em computadores de alto desempenho, como máquinas para jogos ou edição de vídeo, ele é responsável por manter a temperatura ideal de processadores e GPUs.</p><p>Em servidores, onde o uso contínuo gera calor intenso, os dissipadores são fundamentais para garantir a estabilidade e confiabilidade do sistema. Também são usados em sistemas compactos, como mini-PCs e laptops, onde o espaço limitado exige soluções térmicas eficientes.</p><p>Além disso, são aplicados em dispositivos de computação industrial e embarcada, assegurando que equipamentos funcionem de maneira estável em ambientes desafiadores. O Dissipador de Calor Computador é indispensável para qualquer aplicação que exija desempenho consistente e segurança térmica.</p><p>O Dissipador de Calor Computador é um componente indispensável para manter a temperatura ideal de sistemas eletrônicos. Ele garante alta performance e protege os componentes contra superaquecimento.</p><p>Solicite agora mesmo uma cotação no Soluções Industriais e descubra como essa solução pode melhorar o desempenho e a durabilidade do seu equipamento. Invista em tecnologia confiável!</p>"
      },
      "Dissipador de Calor Lâmpada LED": {
        "url": "dissipador-de-calor-lampada-led",
        "metadescription": "Dissipador de Calor Lâmpada LED melhora a eficiência térmica e prolonga a vida útil das luminárias. Solicite uma cotação no Soluções Industriais!",
        "conteudo": "<p>O Dissipador de Calor Lâmpada LED é essencial para controlar a temperatura das luminárias, garantindo maior eficiência, durabilidade e desempenho em aplicações residenciais, comerciais e industriais.</p><h2>O que é Dissipador de Calor Lâmpada LED?</h2><p>O Dissipador de Calor Lâmpada LED é um componente fundamental projetado para gerenciar a temperatura em sistemas de iluminação LED. As lâmpadas LED, embora eficientes em termos de consumo de energia, geram calor durante seu funcionamento. O dissipador é responsável por absorver e dispersar esse calor, garantindo que os componentes internos da lâmpada operem dentro de temperaturas seguras.</p><p>Fabricado principalmente em alumínio ou outros materiais com alta condutividade térmica, o dissipador de calor contribui diretamente para a durabilidade e eficiência das lâmpadas LED. Sua estrutura geralmente inclui aletas ou superfícies ampliadas, que aumentam a área de contato com o ar e otimizam a dissipação térmica.</p><p>Além de prolongar a vida útil das lâmpadas, o Dissipador de Calor Lâmpada LED melhora a estabilidade luminosa, evitando oscilações de desempenho causadas pelo superaquecimento. Ele é indispensável em aplicações de alta performance, como iluminação pública, comercial e industrial.</p><h2>Como Dissipador de Calor Lâmpada LED funciona?</h2><p>O funcionamento do Dissipador de Calor Lâmpada LED baseia-se na transferência térmica. O calor gerado pelos componentes eletrônicos, como os chips de LED e os drivers, é absorvido pelo dissipador. A partir daí, o calor é transferido para o ambiente, reduzindo a temperatura interna da lâmpada.</p><p>O design do dissipador, muitas vezes com superfícies ampliadas ou formato aerodinâmico, maximiza a eficiência dessa troca térmica. Materiais como alumínio ou cobre são utilizados para garantir uma rápida condução do calor. Em ambientes com ventilação forçada, a eficiência térmica do dissipador é ainda maior, aumentando sua capacidade de resfriamento.</p><p>Esse controle térmico constante evita danos aos componentes internos e melhora o desempenho geral da lâmpada, especialmente em aplicações que exigem operação contínua ou alta intensidade luminosa.</p><h2>Quais os principais tipos de Dissipador de Calor Lâmpada LED?</h2><p>Os principais tipos de Dissipador de Calor Lâmpada LED incluem modelos com aletas, maciços e personalizados. Os dissipadores com aletas são amplamente utilizados devido à sua eficiência em dissipar calor. As aletas aumentam a área de contato com o ar, promovendo uma troca térmica mais eficiente.</p><p>Os dissipadores maciços, geralmente fabricados em cobre ou alumínio, são utilizados em sistemas de alta intensidade luminosa. Eles oferecem maior resistência térmica e mecânica, sendo indicados para aplicações industriais ou de iluminação pública.</p><p>Já os dissipadores personalizados são projetados para atender demandas específicas de projetos arquitetônicos ou luminotécnicos. Esses modelos combinam eficiência térmica e design estético, sendo amplamente utilizados em aplicações comerciais e residenciais de alto padrão.</p><h2>Quais as aplicações do Dissipador de Calor Lâmpada LED?</h2><p>O Dissipador de Calor Lâmpada LED é utilizado em diversas aplicações, desde iluminação residencial até sistemas industriais e públicos. Em ambientes residenciais, ele garante a eficiência e a durabilidade de lâmpadas LED em luminárias decorativas e funcionais.</p><p>Na iluminação comercial, o dissipador é essencial para sistemas de alta intensidade, como painéis LED, refletores e luminárias embutidas, que operam por longos períodos. Ele também é amplamente empregado na iluminação pública, onde o controle térmico é fundamental para a operação contínua e confiável das luminárias.</p><p>Outras aplicações incluem setores industriais, onde o dissipador contribui para a eficiência de sistemas de iluminação robustos e duráveis, e em projetos arquitetônicos, onde o desempenho térmico deve ser equilibrado com o design visual das luminárias.</p><p>O Dissipador de Calor Lâmpada LED é indispensável para garantir a eficiência térmica, prolongar a vida útil e manter o desempenho das luminárias em diversas aplicações.</p><p>Solicite agora uma cotação no Soluções Industriais e descubra como essa tecnologia pode melhorar seus sistemas de iluminação. Invista em durabilidade e eficiência!</p>"
      },
      "Dissipador de Calor para LED 50W": {
        "url": "dissipador-de-calor-para-led-50w",
        "metadescription": "Dissipador de Calor para LED 50W garante eficiência térmica e prolonga a vida útil das luminárias. Ideal para aplicações industriais e comerciais.",
        "conteudo": "<p>O Dissipador de Calor para LED 50W é projetado para dissipar o calor gerado em sistemas de alta potência, garantindo maior eficiência térmica, durabilidade e desempenho em luminárias LED.</p><h2>O que é Dissipador de Calor para LED 50W?</h2><p>O Dissipador de Calor para LED 50W é um componente desenvolvido para gerenciar o calor gerado por luminárias LED de 50W, garantindo que o sistema opere de forma eficiente e segura. Lâmpadas e refletores de LED dessa potência geram calor significativo durante sua operação, e o dissipador é responsável por manter a temperatura em níveis seguros.</p><p>Geralmente fabricado em alumínio ou outros materiais de alta condutividade térmica, o Dissipador de Calor para LED 50W combina leveza, resistência e eficiência térmica. Seu design inclui superfícies ampliadas ou aletas, que maximizam a dissipação de calor, aumentando a área de contato com o ar.</p><p>Esse componente é essencial para prolongar a vida útil das luminárias, evitar falhas prematuras e garantir estabilidade luminosa. Sua utilização é indispensável em aplicações como iluminação comercial, pública e industrial, onde o desempenho contínuo e a durabilidade são fundamentais.</p><h2>Como Dissipador de Calor para LED 50W funciona?</h2><p>O Dissipador de Calor para LED 50W funciona transferindo o calor gerado pelo chip LED e os componentes eletrônicos para o ambiente externo. O alumínio, material com alta condutividade térmica, absorve o calor rapidamente e o distribui por sua superfície.</p><p>O design do dissipador, com aletas ou estruturas similares, amplia a área de troca térmica, facilitando o resfriamento. Quando combinado com sistemas de ventilação, como ventiladores, ou instalado em locais com boa circulação de ar, sua eficiência térmica é ainda maior.</p><p>Esse processo contínuo mantém a temperatura da luminária estável, garantindo que o LED opere com desempenho máximo e minimizando o risco de danos ou falhas decorrentes do superaquecimento.</p><h2>Quais os principais tipos de Dissipador de Calor para LED 50W?</h2><p>Existem diferentes tipos de Dissipador de Calor para LED 50W, cada um desenvolvido para atender aplicações específicas. Os mais comuns são os dissipadores com aletas, que possuem uma superfície maior para facilitar a troca térmica. Esses modelos são ideais para refletores e luminárias compactas.</p><p>Os dissipadores maciços são utilizados em aplicações que demandam maior resistência térmica e mecânica, como iluminação pública e industrial. Também existem dissipadores personalizados, projetados para integrar-se perfeitamente ao design das luminárias, combinando funcionalidade e estética.</p><p>Outra variação importante é o tipo de acabamento. Modelos anodizados oferecem maior resistência à corrosão, sendo indicados para ambientes externos ou industriais com condições desafiadoras, como alta umidade ou exposição a produtos químicos.</p><h2>Quais as aplicações do Dissipador de Calor para LED 50W?</h2><p>O Dissipador de Calor para LED 50W é amplamente utilizado em aplicações que demandam eficiência e alta durabilidade. Na iluminação comercial, é empregado em refletores e painéis LED de alta potência, garantindo estabilidade em longos períodos de operação.</p><p>Na iluminação pública, esse componente é essencial para luminárias instaladas em vias, praças e estacionamentos, onde a resistência a intempéries e o desempenho contínuo são fundamentais. Também é utilizado em sistemas industriais, como galpões e áreas de produção, onde a eficiência térmica prolonga a vida útil das luminárias.</p><p>Além disso, o dissipador é aplicado em projetos arquitetônicos e decorativos, onde a integração entre desempenho térmico e design é necessária. Sua versatilidade e eficiência fazem do Dissipador de Calor para LED 50W uma solução indispensável em qualquer sistema de iluminação de alta potência.</p><p>O Dissipador de Calor para LED 50W é uma solução eficiente para prolongar a vida útil e garantir o desempenho das luminárias em sistemas de alta potência. Ele assegura estabilidade térmica e confiabilidade em diversas aplicações.</p><p>Solicite agora mesmo uma cotação no Soluções Industriais e invista na qualidade e eficiência que seu projeto de iluminação necessita. Garanta durabilidade e desempenho superior!</p>"
      },
      "Dissipador para Placa-mãe": {
        "url": "dissipador-para-placa-mae",
        "metadescription": "Dissipador para Placa-mãe protege componentes contra superaquecimento, garantindo desempenho e durabilidade. Solicite uma cotação no Soluções Industriais!",
        "conteudo": "<p>O Dissipador para Placa-mãe é essencial para dissipar o calor gerado por chipsets e outros componentes, garantindo alta eficiência térmica, desempenho estável e maior vida útil do sistema.</p><h2>O que é Dissipador para Placa-mãe?</h2><p>O Dissipador para Placa-mãe é um componente crucial em sistemas computacionais, projetado para gerenciar o calor gerado por elementos como chipsets, VRMs (Módulos Reguladores de Voltagem) e outros componentes críticos. A placa-mãe é o núcleo de um computador, e o dissipador assegura que ela funcione dentro de temperaturas seguras, prevenindo falhas e mantendo o desempenho estável.</p><p>Esse dissipador é geralmente fabricado em materiais como alumínio ou cobre, conhecidos por sua alta condutividade térmica. Ele possui um design com superfícies ampliadas, como aletas ou estruturas finas, que aumentam a área de contato com o ar, facilitando a troca térmica e a dissipação de calor.</p><p>Com o avanço da tecnologia, os dissipadores para placas-mãe se tornaram ainda mais importantes em sistemas de alto desempenho, como computadores para jogos, edição de vídeo ou servidores, onde o controle térmico é essencial para a eficiência e durabilidade.</p><h2>Como Dissipador para Placa-mãe funciona?</h2><p>O funcionamento do Dissipador para Placa-mãe baseia-se na condução térmica. Durante o uso, os componentes da placa-mãe, como o chipset e os reguladores de voltagem, geram calor. O dissipador absorve essa energia térmica e a distribui pela sua superfície para ser dissipada no ambiente.</p><p>O design com aletas ou outras estruturas aumenta a área de troca térmica, acelerando a dispersão do calor. Em sistemas equipados com ventilação ativa, como ventiladores de gabinete, ou soluções de refrigeração líquida, a eficiência do dissipador é ampliada, garantindo temperaturas ideais mesmo sob carga elevada.</p><p>Ao manter os componentes em uma faixa de temperatura segura, o dissipador ajuda a evitar falhas, aumentar a durabilidade dos componentes e garantir um desempenho consistente, mesmo em situações de uso intenso.</p><h2>Quais os principais tipos de Dissipador para Placa-mãe?</h2><p>Os principais tipos de Dissipador para Placa-mãe incluem modelos passivos, ativos e híbridos. Os dissipadores passivos utilizam apenas a superfície do material para dissipar o calor e são silenciosos, sendo comuns em placas-mãe de uso geral ou sistemas com baixa geração de calor.</p><p>Os dissipadores ativos incluem ventiladores integrados para aumentar a eficiência de dissipação térmica. Eles são frequentemente utilizados em placas-mãe de alta performance, como as voltadas para jogos ou overclocking.</p><p>Os dissipadores híbridos combinam características de ambos os modelos, muitas vezes integrando sistemas de refrigeração líquida para lidar com o calor em situações extremas. Eles são comuns em configurações avançadas, como estações de trabalho ou servidores.</p><p>Além disso, os dissipadores podem variar em tamanho, material e design, dependendo da aplicação e da necessidade de resfriamento. Modelos anodizados oferecem maior proteção contra corrosão, sendo ideais para ambientes que exigem maior durabilidade.</p><h2>Quais as aplicações do Dissipador para Placa-mãe?</h2><p>O Dissipador para Placa-mãe é utilizado em uma ampla gama de aplicações, sendo essencial em computadores pessoais, servidores e estações de trabalho. Em PCs para jogos, ele é responsável por resfriar os componentes da placa-mãe, garantindo estabilidade mesmo durante longas sessões de uso intensivo.</p><p>Em servidores e sistemas de computação empresarial, o dissipador assegura a operação contínua, prevenindo superaquecimentos que podem levar à falha do sistema e perda de dados. Ele também é usado em estações de trabalho para edição de vídeo e renderização 3D, onde o desempenho está diretamente relacionado à eficiência do controle térmico.</p><p>Além disso, o dissipador é fundamental em dispositivos embarcados e soluções de computação industrial, onde o ambiente pode apresentar condições adversas. Sua função de controle térmico permite que o equipamento opere com segurança e eficiência, mesmo em temperaturas elevadas ou sob uso intensivo.</p><p>O Dissipador para Placa-mãe é indispensável para manter a temperatura ideal dos componentes, garantindo desempenho estável e prolongando a vida útil do sistema em diversas aplicações.</p><p>Solicite agora uma cotação no Soluções Industriais e descubra como esse componente pode otimizar sua configuração, oferecendo eficiência e segurança para seu equipamento. Invista em qualidade e performance!</p>"
      },
      "Lâmpada LED com Dissipador de Calor": {
        "url": "lampada-led-com-dissipador-de-calor",
        "metadescription": "Lâmpada LED com Dissipador de Calor garante alta eficiência luminosa e maior durabilidade, ideal para aplicações residenciais, comerciais e industriais.",
        "conteudo": "<p>A Lâmpada LED com Dissipador de Calor é ideal para controlar a temperatura, garantindo eficiência luminosa, maior durabilidade e economia. Indispensável em aplicações residenciais, comerciais e industriais.</p><h2>O que é Lâmpada LED com Dissipador de Calor?</h2><p>A Lâmpada LED com Dissipador de Calor é uma solução eficiente que integra tecnologia LED com um sistema de dissipação térmica. O LED, embora seja uma fonte de luz de baixo consumo energético, gera calor durante seu funcionamento, especialmente em aplicações de alta potência. O dissipador de calor é responsável por controlar essa temperatura, garantindo a eficiência e a segurança do sistema.</p><p>Fabricado em materiais como alumínio ou outros metais com alta condutividade térmica, o dissipador ajuda a prolongar a vida útil da lâmpada ao evitar o superaquecimento dos componentes eletrônicos. Seu design geralmente inclui aletas ou superfícies que ampliam a área de troca térmica com o ambiente, promovendo o resfriamento de maneira eficaz.</p><p>A Lâmpada LED com Dissipador de Calor é amplamente utilizada em ambientes residenciais, comerciais e industriais, proporcionando iluminação de alta qualidade com baixo consumo de energia e longa durabilidade, sendo uma escolha sustentável e econômica.</p><h2>Como funciona a Lâmpada LED com Dissipador de Calor?</h2><p>O funcionamento da Lâmpada LED com Dissipador de Calor está baseado na tecnologia de controle térmico integrada ao sistema de iluminação. Durante a operação, o chip LED gera luz e calor. Este calor é absorvido pelo dissipador, que o transfere para o ambiente, mantendo a temperatura do chip dentro de níveis seguros.</p><p>O design do dissipador, frequentemente com aletas ou estruturas ampliadas, maximiza a troca térmica, permitindo que o calor seja dissipado de forma eficiente. Isso evita que o calor afete negativamente o desempenho e a durabilidade da lâmpada.</p><p>Além disso, o controle térmico proporcionado pelo dissipador mantém a estabilidade luminosa, garantindo que a intensidade da luz não seja prejudicada, mesmo após longos períodos de uso. Essa característica é fundamental em aplicações onde a confiabilidade e a eficiência são indispensáveis.</p><h2>Quais os principais tipos de Lâmpada LED com Dissipador de Calor?</h2><p>Existem diferentes tipos de Lâmpada LED com Dissipador de Calor, cada um desenvolvido para atender necessidades específicas. As lâmpadas LED de uso residencial geralmente possuem dissipadores integrados em formatos compactos, ideais para luminárias decorativas ou funcionais.</p><p>Em aplicações comerciais, como lojas e escritórios, as lâmpadas LED com dissipadores maiores e mais robustos são comuns, já que precisam lidar com maior geração de calor devido à intensidade luminosa elevada. Para ambientes industriais, são utilizadas lâmpadas LED de alta potência, com dissipadores maciços que garantem a operação em condições exigentes.</p><p>Outro fator de diferenciação é o material do dissipador. Modelos fabricados em alumínio são mais leves e econômicos, enquanto os dissipadores de cobre oferecem maior eficiência térmica, sendo indicados para situações que demandam controle térmico extremo.</p><h2>Quais as aplicações da Lâmpada LED com Dissipador de Calor?</h2><p>A Lâmpada LED com Dissipador de Calor é amplamente utilizada em diversas aplicações. Em ambientes residenciais, é ideal para luminárias decorativas e sistemas de iluminação geral, proporcionando economia de energia e longa durabilidade.</p><p>No setor comercial, as lâmpadas com dissipador são essenciais para garantir iluminação uniforme e confiável em lojas, escritórios, restaurantes e shoppings. Essas aplicações exigem desempenho contínuo e alta eficiência térmica para evitar interrupções e custos adicionais de manutenção.</p><p>Já em ambientes industriais, essas lâmpadas são usadas em galpões, fábricas e áreas externas, como estacionamentos, onde a iluminação precisa suportar condições adversas e funcionar por longos períodos. A combinação de tecnologia LED e dissipadores robustos garante a eficiência luminosa e térmica nessas situações.</p><p>Além disso, a Lâmpada LED com Dissipador de Calor é amplamente empregada em projetos de iluminação pública e arquitetônica, onde o desempenho confiável e a estética são fundamentais.</p><p>A Lâmpada LED com Dissipador de Calor é uma solução indispensável para garantir eficiência luminosa, controle térmico e maior durabilidade em sistemas de iluminação diversos.</p><p>Solicite agora uma cotação no Soluções Industriais e descubra como essa tecnologia pode otimizar seus projetos de iluminação. Invista em qualidade, economia e sustentabilidade!</p>"
      },
      "Placa-mãe com Dissipador de Calor": {
        "url": "placa-mae-com-dissipador-de-calor",
        "metadescription": "Placa-mãe com Dissipador de Calor oferece alto desempenho e proteção térmica para seus componentes. Solicite uma cotação no Soluções Industriais!",
        "conteudo": "<p>A Placa-mãe com Dissipador de Calor é projetada para proteger seus componentes contra superaquecimento, garantindo desempenho estável, eficiência térmica e maior durabilidade em sistemas de alto desempenho.</p><h2>O que é Placa-mãe com Dissipador de Calor?</h2><p>A Placa-mãe com Dissipador de Calor é uma solução avançada desenvolvida para gerenciar o calor gerado por componentes críticos como chipsets, VRMs (Módulos Reguladores de Voltagem) e outros circuitos essenciais. O dissipador de calor integrado é responsável por manter os componentes em temperaturas ideais, prevenindo falhas e garantindo que o sistema funcione com eficiência máxima.</p><p>Esse tipo de placa-mãe é geralmente equipado com dissipadores de alumínio ou cobre, materiais conhecidos por sua alta condutividade térmica. Eles são projetados para maximizar a troca térmica com o ambiente, seja através de aletas ou outros formatos que aumentam a área de contato.</p><p>As Placas-mãe com Dissipadores de Calor são especialmente indicadas para sistemas de alto desempenho, como computadores gamers, estações de trabalho para edição de vídeo ou renderização 3D, e servidores. Esses ambientes exigem controle térmico eficiente para manter a estabilidade e prolongar a vida útil dos componentes.</p><h2>Como funciona uma Placa-mãe com Dissipador de Calor?</h2><p>O funcionamento de uma Placa-mãe com Dissipador de Calor baseia-se no controle térmico dos componentes. Durante a operação, os chipsets e reguladores de voltagem geram calor devido ao processamento intenso. O dissipador integrado absorve esse calor e o distribui pela sua superfície.</p><p>O design do dissipador, geralmente com aletas ou superfícies ampliadas, aumenta a eficiência da troca térmica com o ar ambiente. Em sistemas equipados com ventiladores ou resfriamento líquido, o desempenho térmico é ainda mais otimizado.</p><p>Essa gestão térmica contínua evita superaquecimento, mantém o desempenho estável e protege a integridade dos componentes. Isso é essencial em configurações avançadas, onde a confiabilidade do sistema é uma prioridade.</p><h2>Quais os principais tipos de Placa-mãe com Dissipador de Calor?</h2><p>Existem diferentes tipos de Placa-mãe com Dissipador de Calor, projetados para atender a várias necessidades. As placas-mãe voltadas para uso geral geralmente possuem dissipadores passivos, que utilizam apenas o fluxo de ar natural para resfriar os componentes.</p><p>As placas-mãe de alto desempenho, como as destinadas a jogos ou overclocking, possuem dissipadores ativos, com ventiladores integrados para maximizar o resfriamento. Essas placas são ideais para configurações que exigem máxima estabilidade térmica.</p><p>Para aplicações críticas, como servidores ou estações de trabalho, as placas-mãe podem incluir dissipadores híbridos, que combinam resfriamento passivo, ativo e até mesmo soluções de resfriamento líquido. Esses modelos oferecem controle térmico extremo e são projetados para operação contínua em alta carga.</p><p>Outra diferenciação é o material do dissipador: alumínio para leveza e custo-benefício, ou cobre para máxima eficiência térmica. A escolha depende das demandas específicas do sistema.</p><h2>Quais as aplicações da Placa-mãe com Dissipador de Calor?</h2><p>A Placa-mãe com Dissipador de Calor é utilizada em diversas aplicações, sendo essencial em computadores de alta performance. Em PCs para jogos, ela garante que os componentes operem com estabilidade mesmo sob cargas extremas, melhorando a experiência do usuário.</p><p>Em estações de trabalho voltadas para edição de vídeo, renderização 3D ou design gráfico, essa placa-mãe permite que o sistema lide com tarefas intensivas sem comprometer a eficiência. Em servidores e data centers, a gestão térmica eficiente assegura a operação contínua e confiável dos sistemas.</p><p>Além disso, a Placa-mãe com Dissipador de Calor é amplamente utilizada em soluções industriais e embarcadas, onde os ambientes podem apresentar condições adversas, como altas temperaturas ou umidade. Sua capacidade de controle térmico garante que os equipamentos funcionem de maneira segura e eficiente.</p><p>A Placa-mãe com Dissipador de Calor é uma escolha indispensável para sistemas que exigem desempenho estável e confiabilidade. Ela protege os componentes contra superaquecimento e prolonga a vida útil do hardware.</p><p>Solicite agora uma cotação no Soluções Industriais e descubra como essa tecnologia pode otimizar seu sistema, garantindo máxima eficiência e durabilidade. Invista em qualidade e segurança térmica!</p>"
      }
    }
  }
  
}
